<svg xmlns="http://www.w3.org/2000/svg" width="12.885" height="33.54" viewBox="0 0 12.885 33.54">
  <g id="Group_3" data-name="Group 3" transform="translate(-15 -460.46)">
    <g id="Union_1" data-name="Union 1" transform="translate(15 460.46)" fill="none">
      <path d="M0,27.648A5.647,5.647,0,0,1,1.982,23.4V3.626h.027A4.337,4.337,0,0,1,6.442,0a4.336,4.336,0,0,1,4.433,3.626H10.9V23.4a5.647,5.647,0,0,1,1.982,4.252A6.185,6.185,0,0,1,6.442,33.54,6.185,6.185,0,0,1,0,27.648Z" stroke="none"/>
      <path d="M 6.442400932312012 32.03997421264648 C 9.167651176452637 32.03997421264648 11.38480091094971 30.06973457336426 11.38480091094971 27.64798545837402 C 11.38480091094971 26.46605491638184 10.86218070983887 25.35645484924316 9.913201332092285 24.52358436584473 L 9.402661323547363 24.07549476623535 L 9.402661323547363 23.39620590209961 L 9.402661323547363 4.079195022583008 L 9.402661323547363 3.942033052444458 L 9.386171340942383 3.805695295333862 C 9.227190971374512 2.491235256195068 7.96164083480835 1.50000524520874 6.442400932312012 1.50000524520874 C 5.684990882873535 1.50000524520874 4.963820934295654 1.750595211982727 4.411730766296387 2.205625295639038 C 3.896360874176025 2.630385160446167 3.572080850601196 3.198665142059326 3.498620986938477 3.805775165557861 L 3.482141017913818 3.941971063613892 L 3.482141017913818 23.39619445800781 L 3.482141017913818 24.07548522949219 L 2.971601009368896 24.5235652923584 C 2.022620916366577 25.35645484924316 1.500000953674316 26.466064453125 1.500000953674316 27.64798545837402 C 1.500000953674316 30.06973457336426 3.717150926589966 32.03997421264648 6.442400932312012 32.03997421264648 M 6.442400932312012 33.53997421264648 C 2.884001016616821 33.53997421264648 9.323119911641697e-07 30.90236473083496 9.323119911641697e-07 27.64798545837402 C 9.323119911641697e-07 25.97688484191895 0.7604509592056274 24.46843528747559 1.982140898704529 23.39619445800781 L 1.982140898704529 3.625585317611694 L 2.009480953216553 3.625585317611694 C 2.256220817565918 1.58641517162323 4.147060871124268 5.198974577069748e-06 6.442400932312012 5.198974577069748e-06 C 8.738571166992188 5.198974577069748e-06 10.62868118286133 1.58641517162323 10.87532138824463 3.625585317611694 L 10.90266132354736 3.625585317611694 L 10.90266132354736 4.079195022583008 L 10.90266132354736 23.39620590209961 C 12.12435054779053 24.46843528747559 12.88480091094971 25.97688484191895 12.88480091094971 27.64798545837402 C 12.88480091094971 30.90236473083496 10.00080108642578 33.53997421264648 6.442400932312012 33.53997421264648 Z" stroke="none" fill="#707070"/>
    </g>
    <path id="Union_3" data-name="Union 3" d="M0,18.546a3.321,3.321,0,0,1,2-3.008V.951h.085A1.5,1.5,0,0,1,3.5,0,1.5,1.5,0,0,1,4.915.951H5V15.538a3.321,3.321,0,0,1,2,3.008,3.417,3.417,0,0,1-3.5,3.328A3.417,3.417,0,0,1,0,18.546Z" transform="translate(18 469.125)" fill="#707070"/>
  </g>
</svg>
